Binomial Regression
…
As per Cooks plot, the top 5 highly influential observations in the model.

#find total number of highly influential observations
fit.data %>% 
  filter(abs(.std.resid) > 3)

## # A tibble: 432 x 15
##    .rownames isFraud    Amt OldBalanceOrig OldBalanceDest Type_CASH_OUT
##    <chr>     <fct>    <dbl>          <dbl>          <dbl>         <int>
##  1 2         1       1.81e2           181          21182              1
##  2 125       1       2.81e3          2806          26202              1
##  3 194       1       2.01e4         20128           6268              1
##  4 348       1       3.51e4         35064.         31140              1
##  5 535       1       2.51e4         25071.          9084.             1
##  6 552       1       1.33e5          4499.             0              1
##  7 605       1       2.35e5        235239.             0              1
##  8 847       1       1.86e4         18627.        147252.             1
##  9 882       1       1.05e4         10539.             0              1
## 10 1007      1       1.70e5        169942.             0              1
## # ... with 422 more rows, and 9 more variables: hour <dbl>, .fitted <dbl>,
## #   .se.fit <dbl>, .resid <dbl>, .hat <dbl>, .sigma <dbl>, .cooksd <dbl>,
## #   .std.resid <dbl>, index <int>
…
